{
    "name": "Morr.Utilities.Editor",
    "rootNamespace": "",
    "references": [
        "Morr.Utilities",
        "RotaryHeart.ProjectPrefs.Editor",
        "RotaryHeart.SerializableDictionary.Editor",
        "Unity.Addressables.Editor",
        "Unity.Build",
        "Unity.Build.Classic"
    ],
    "includePlatforms": [
        "Editor"
    ],
    "excludePlatforms": [],
    "allowUnsafeCode": false,
    "overrideReferences": false,
    "precompiledReferences": [],
    "autoReferenced": true,
    "defineConstraints": [],
    "versionDefines": [
        {
            "name": "com.unity.addressables",
            "expression": "",
            "define": "PACKAGE_ADDRESSABLES"
        },
        {
            "name": "com.unity.platforms",
            "expression": "",
            "define": "PACKAGE_PLATFORMS"
        },
        {
            "name": "com.unity.platforms.windows",
            "expression": "",
            "define": "PACKAGE_PLATFORMS_WINDOWS"
        }
    ],
    "noEngineReferences": false
}